tb/wave_loopback.vcd
$date
	Mon Mar  6 21:57:45 2023
$end
$version
	Icarus Verilog
$end
$timescale
	1ps
$end
$scope module test_loopback $end
$var wire 1 ! finish $end
$var wire 8 " data_out_slave [7:0] $end
$var wire 8 # data_out_master [7:0] $end
$var reg 1 $ clk_m $end
$var reg 1 % clk_s $end
$var reg 8 & data_in_master [7:0] $end
$var reg 8 ' data_in_slave [7:0] $end
$var reg 1 ( rst_n $end
$var reg 1 ) start $end
$scope module l0 $end
$var wire 1 $ clk_m $end
$var wire 1 % clk_s $end
$var wire 8 * data_in_master [7:0] $end
$var wire 8 + data_in_slave [7:0] $end
$var wire 1 ( rst_n $end
$var wire 1 ) start $end
$var wire 1 , ss $end
$var wire 1 - sclk $end
$var wire 1 . mosi $end
$var wire 1 / miso $end
$var wire 1 ! finish $end
$var wire 8 0 data_out_slave [7:0] $end
$var wire 8 1 data_out_master [7:0] $end
$scope module m0 $end
$var wire 1 $ clk_m $end
$var wire 8 2 data_in_master [7:0] $end
$var wire 1 ( rst_n $end
$var wire 1 3 sampl_en $end
$var wire 1 4 shift_en $end
$var wire 1 ) start $end
$var wire 1 5 sclk_m_pos $end
$var wire 1 6 sclk_m_neg $end
$var wire 1 . mosi $end
$var wire 1 / miso $end
$var reg 2 7 c_state [1:0] $end
$var reg 4 8 cnt_clock [3:0] $end
$var reg 4 9 cnt_data_width [3:0] $end
$var reg 8 : data_in_master_r [7:0] $end
$var reg 8 ; data_out_master [7:0] $end
$var reg 8 < data_out_master_r [7:0] $end
$var reg 1 ! finish $end
$var reg 2 = n_state [1:0] $end
$var reg 1 - sclk_m $end
$var reg 1 > sclk_m_r0 $end
$var reg 1 , ss $end
$upscope $end
$scope module s0 $end
$var wire 1 % clk_s $end
$var wire 8 ? data_in_slave [7:0] $end
$var wire 1 . mosi $end
$var wire 1 ( rst_n $end
$var wire 1 @ sampl_en $end
$var wire 1 - sclk_s $end
$var wire 1 A shift_en $end
$var wire 1 , ss $end
$var wire 1 B ss_neg $end
$var wire 1 C sclk_s_pos $end
$var wire 1 D sclk_s_neg $end
$var wire 1 / miso $end
$var reg 4 E cnt [3:0] $end
$var reg 8 F data_in_slave_r [7:0] $end
$var reg 8 G data_out_slave [7:0] $end
$var reg 8 H data_out_slave_r [7:0] $end
$var reg 1 I data_valid $end
$var reg 1 J sclk_s_r0 $end
$var reg 1 K ss_r0 $end
$upscope $end
$upscope $end
$upscope $end
$enddefinitions $end
#0
$dumpvars
0K
0J
0I
b0 H
b0 G
b0 F
b0 E
0D
0C
0B
0A
0@
b0 ?
0>
b0 =
b0 <
b0 ;
b0 :
bx 9
b0 8
b0 7
06
05
04
03
b0 2
b0 1
b0 0
0/
0.
0-
1,
b0 +
b0 *
0)
0(
b0 '
b0 &
1%
1$
b0 #
b0 "
0!
$end
#2
0%
0$
#4
1%
1$
#6
0%
0$
#8
1%
1$
#10
0%
0$
1(
#12
1K
b0 9
1%
1$
#14
0%
0$
#16
1%
1$
#18
0%
0$
#20
b1 =
1%
1$
1)
b1010101 '
b1010101 +
b1010101 ?
b10110100 &
b10110100 *
b10110100 2
#22
0%
0$
#24
b10 =
1B
1.
b1 7
b10110100 :
0,
1%
1$
#26
0%
0$
#28
0B
b1010101 F
0K
b1 8
b10 7
1%
1$
#30
0%
0$
b0 '
b0 +
b0 ?
b0 &
b0 *
b0 2
0)
#32
b10 8
1%
1$
#34
0%
0$
#36
b11 8
1%
1$
#38
0%
0$
#40
b100 8
1%
1$
#42
0%
0$
#44
b101 8
1%
1$
#46
0%
0$
#48
1A
1C
14
15
b110 8
1-
1%
1$
#50
0%
0$
#52
0A
0C
04
05
1/
0.
b10101010 F
1J
1>
b1101000 :
b1 9
b111 8
1%
1$
#54
0%
0$
#56
b1000 8
1%
1$
#58
0%
0$
#60
b1001 8
1%
1$
#62
0%
0$
#64
b1010 8
1%
1$
#66
0%
0$
#68
13
16
1@
1D
0-
b1 8
1%
1$
#70
0%
0$
#72
0@
0D
03
06
0J
b1 E
b10 8
0>
b1 <
1%
1$
#74
0%
0$
#76
b11 8
1%
1$
#78
0%
0$
#80
b100 8
1%
1$
#82
0%
0$
#84
b101 8
1%
1$
#86
0%
0$
#88
1A
1C
14
15
b110 8
1-
1%
1$
#90
0%
0$
#92
0A
0C
04
05
0/
1.
b1010100 F
1J
1>
b11010000 :
b10 9
b111 8
1%
1$
#94
0%
0$
#96
b1000 8
1%
1$
#98
0%
0$
#100
b1001 8
1%
1$
#102
0%
0$
#104
b1010 8
1%
1$
#106
0%
0$
#108
13
16
1@
1D
0-
b1 8
1%
1$
#110
0%
0$
#112
0@
0D
03
06
0J
b1 H
b10 E
b10 8
0>
b10 <
1%
1$
#114
0%
0$
#116
b11 8
1%
1$
#118
0%
0$
#120
b100 8
1%
1$
#122
0%
0$
#124
b101 8
1%
1$
#126
0%
0$
#128
1A
1C
14
15
b110 8
1-
1%
1$
#130
0%
0$
#132
0A
0C
04
05
1/
b10101000 F
1J
1>
b10100000 :
b11 9
b111 8
1%
1$
#134
0%
0$
#136
b1000 8
1%
1$
#138
0%
0$
#140
b1001 8
1%
1$
#142
0%
0$
#144
b1010 8
1%
1$
#146
0%
0$
#148
13
16
1@
1D
0-
b1 8
1%
1$
#150
0%
0$
#152
0@
0D
03
06
0J
b11 H
b11 E
b10 8
0>
b101 <
1%
1$
#154
0%
0$
#156
b11 8
1%
1$
#158
0%
0$
#160
b100 8
1%
1$
#162
0%
0$
#164
b101 8
1%
1$
#166
0%
0$
#168
1A
1C
14
15
b110 8
1-
1%
1$
#170
0%
0$
#172
0A
0C
04
05
0/
0.
b1010000 F
1J
1>
b1000000 :
b100 9
b111 8
1%
1$
#174
0%
0$
#176
b1000 8
1%
1$
#178
0%
0$
#180
b1001 8
1%
1$
#182
0%
0$
#184
b1010 8
1%
1$
#186
0%
0$
#188
13
16
1@
1D
0-
b1 8
1%
1$
#190
0%
0$
#192
0@
0D
03
06
0J
b110 H
b100 E
b10 8
0>
b1010 <
1%
1$
#194
0%
0$
#196
b11 8
1%
1$
#198
0%
0$
#200
b100 8
1%
1$
#202
0%
0$
#204
b101 8
1%
1$
#206
0%
0$
#208
1A
1C
14
15
b110 8
1-
1%
1$
#210
0%
0$
#212
0A
0C
04
05
1/
1.
b10100000 F
1J
1>
b10000000 :
b101 9
b111 8
1%
1$
#214
0%
0$
#216
b1000 8
1%
1$
#218
0%
0$
#220
b1001 8
1%
1$
#222
0%
0$
#224
b1010 8
1%
1$
#226
0%
0$
#228
13
16
1@
1D
0-
b1 8
1%
1$
#230
0%
0$
#232
0@
0D
03
06
0J
b1101 H
b101 E
b10 8
0>
b10101 <
1%
1$
#234
0%
0$
#236
b11 8
1%
1$
#238
0%
0$
#240
b100 8
1%
1$
#242
0%
0$
#244
b101 8
1%
1$
#246
0%
0$
#248
1A
1C
14
15
b110 8
1-
1%
1$
#250
0%
0$
#252
0A
0C
04
05
0/
0.
b1000000 F
1J
1>
b0 :
b110 9
b111 8
1%
1$
#254
0%
0$
#256
b1000 8
1%
1$
#258
0%
0$
#260
b1001 8
1%
1$
#262
0%
0$
#264
b1010 8
1%
1$
#266
0%
0$
#268
13
16
1@
1D
0-
b1 8
1%
1$
#270
0%
0$
#272
0@
0D
03
06
0J
b11010 H
b110 E
b10 8
0>
b101010 <
1%
1$
#274
0%
0$
#276
b11 8
1%
1$
#278
0%
0$
#280
b100 8
1%
1$
#282
0%
0$
#284
b101 8
1%
1$
#286
0%
0$
#288
1A
1C
14
15
b110 8
1-
1%
1$
#290
0%
0$
#292
0A
0C
04
05
1/
b10000000 F
1J
1>
b111 9
b111 8
1%
1$
#294
0%
0$
#296
b1000 8
1%
1$
#298
0%
0$
#300
b1001 8
1%
1$
#302
0%
0$
#304
b1010 8
1%
1$
#306
0%
0$
#308
13
16
1@
1D
0-
b1 8
1%
1$
#310
0%
0$
#312
0@
0D
03
06
0J
b110100 H
b111 E
b10 8
0>
b1010101 <
1%
1$
#314
0%
0$
#316
b11 8
1%
1$
#318
0%
0$
#320
b100 8
1%
1$
#322
0%
0$
#324
b101 8
1%
1$
#326
0%
0$
#328
1A
1C
14
15
b110 8
1-
1%
1$
#330
0%
0$
#332
b11 =
0A
0C
04
05
0/
b0 F
1J
1>
b1000 9
b111 8
1%
1$
#334
0%
0$
#336
b0 =
b11 7
b1010101 #
b1010101 1
b1010101 ;
1,
1!
b0 8
b0 9
1%
1$
#338
0%
0$
#340
13
16
1@
1D
1K
0-
0!
b0 7
1%
1$
#342
0%
0$
#344
0@
0D
03
06
0J
b1101000 H
b1000 E
0>
b10101010 <
1%
1$
#346
0%
0$
#348
1I
b1101000 "
b1101000 0
b1101000 G
1%
1$
#350
0%
0$
#352
1%
1$
#354
0%
0$
#356
1%
1$
#358
0%
0$
#360
1%
1$
#362
0%
0$
#364
1%
1$
#366
0%
0$
#368
1%
1$
#370
0%
0$
#372
1%
1$
#374
0%
0$
#376
1%
1$
#378
0%
0$
#380
b1 =
1%
1$
b1101000 '
b1101000 +
b1101000 ?
b1010101 &
b1010101 *
b1010101 2
1)
#382
0%
0$
#384
b10 =
1B
b1 7
b0 #
b0 1
b0 ;
b1010101 :
0,
1%
1$
#386
0%
0$
#388
0B
b0 E
b1101000 F
0K
b1 8
b10 7
1%
1$
#390
0%
0$
b0 '
b0 +
b0 ?
b0 &
b0 *
b0 2
0)
#392
0I
b0 "
b0 0
b0 G
b10 8
1%
1$
#394
0%
0$
#396
b11 8
1%
1$
#398
0%
0$
#400
b100 8
1%
1$
#402
0%
0$
#404
b101 8
1%
1$
#406
0%
0$
#408
1A
1C
14
15
b110 8
1-
1%
1$
#410
0%
0$
#412
0A
0C
04
05
1/
1.
b11010000 F
1J
1>
b10101010 :
b1 9
b111 8
1%
1$
#414
0%
0$
#416
b1000 8
1%
1$
#418
0%
0$
#420
b1001 8
1%
1$
#422
0%
0$
#424
b1010 8
1%
1$
#426
0%
0$
#428
13
16
1@
1D
0-
b1 8
1%
1$
#430
0%
0$
#432
0@
0D
03
06
0J
b11010001 H
b1 E
b10 8
0>
b1010101 <
1%
1$
#434
0%
0$
#436
b11 8
1%
1$
#438
0%
0$
#440
b100 8
1%
1$
#442
0%
0$
#444
b101 8
1%
1$
#446
0%
0$
#448
1A
1C
14
15
b110 8
1-
1%
1$
#450
0%
0$
#452
0A
0C
04
05
0.
b10100000 F
1J
1>
b1010100 :
b10 9
b111 8
1%
1$
#454
0%
0$
#456
b1000 8
1%
1$
#458
0%
0$
#460
b1001 8
1%
1$
#462
0%
0$
#464
b1010 8
1%
1$
#466
0%
0$
#468
13
16
1@
1D
0-
b1 8
1%
1$
#470
0%
0$
#472
0@
0D
03
06
0J
b10100010 H
b10 E
b10 8
0>
b10101011 <
1%
1$
#474
0%
0$
#476
b11 8
1%
1$
#478
0%
0$
#480
b100 8
1%
1$
#482
0%
0$
#484
b101 8
1%
1$
#486
0%
0$
#488
1A
1C
14
15
b110 8
1-
1%
1$
#490
0%
0$
#492
0A
0C
04
05
0/
1.
b1000000 F
1J
1>
b10101000 :
b11 9
b111 8
1%
1$
#494
0%
0$
#496
b1000 8
1%
1$
#498
0%
0$
#500
b1001 8
1%
1$
#502
0%
0$
#504
b1010 8
1%
1$
#506
0%
0$
#508
13
16
1@
1D
0-
b1 8
1%
1$
#510
0%
0$
#512
0@
0D
03
06
0J
b1000101 H
b11 E
b10 8
0>
b1010110 <
1%
1$
#514
0%
0$
#516
b11 8
1%
1$
#518
0%
0$
#520
b100 8
1%
1$
#522
0%
0$
#524
b101 8
1%
1$
#526
0%
0$
#528
1A
1C
14
15
b110 8
1-
1%
1$
#530
0%
0$
#532
0A
0C
04
05
1/
0.
b10000000 F
1J
1>
b1010000 :
b100 9
b111 8
1%
1$
#534
0%
0$
#536
b1000 8
1%
1$
#538
0%
0$
#540
b1001 8
1%
1$
#542
0%
0$
#544
b1010 8
1%
1$
#546
0%
0$
#548
13
16
1@
1D
0-
b1 8
1%
1$
#550
0%
0$
#552
0@
0D
03
06
0J
b10001010 H
b100 E
b10 8
0>
b10101101 <
1%
1$
#554
0%
0$
#556
b11 8
1%
1$
#558
0%
0$
#560
b100 8
1%
1$
#562
0%
0$
#564
b101 8
1%
1$
#566
0%
0$
#568
1A
1C
14
15
b110 8
1-
1%
1$
#570
0%
0$
#572
0A
0C
04
05
0/
1.
b0 F
1J
1>
b10100000 :
b101 9
b111 8
1%
1$
#574
0%
0$
#576
b1000 8
1%
1$
#578
0%
0$
#580
b1001 8
1%
1$
#582
0%
0$
#584
b1010 8
1%
1$
#586
0%
0$
#588
13
16
1@
1D
0-
b1 8
1%
1$
#590
0%
0$
#592
0@
0D
03
06
0J
b10101 H
b101 E
b10 8
0>
b1011010 <
1%
1$
#594
0%
0$
#596
b11 8
1%
1$
#598
0%
0$
#600
b100 8
1%
1$
#602
0%
0$
#604
b101 8
1%
1$
#606
0%
0$
#608
1A
1C
14
15
b110 8
1-
1%
1$
#610
0%
0$
#612
0A
0C
04
05
0.
1J
1>
b1000000 :
b110 9
b111 8
1%
1$
#614
0%
0$
#616
b1000 8
1%
1$
#618
0%
0$
#620
b1001 8
1%
1$
#622
0%
0$
#624
b1010 8
1%
1$
#626
0%
0$
#628
13
16
1@
1D
0-
b1 8
1%
1$
#630
0%
0$
#632
0@
0D
03
06
0J
b101010 H
b110 E
b10 8
0>
b10110100 <
1%
1$
#634
0%
0$
#636
b11 8
1%
1$
#638
0%
0$
#640
b100 8
1%
1$
#642
0%
0$
#644
b101 8
1%
1$
#646
0%
0$
#648
1A
1C
14
15
b110 8
1-
1%
1$
#650
0%
0$
#652
0A
0C
04
05
1.
1J
1>
b10000000 :
b111 9
b111 8
1%
1$
#654
0%
0$
#656
b1000 8
1%
1$
#658
0%
0$
#660
b1001 8
1%
1$
#662
0%
0$
#664
b1010 8
1%
1$
#666
0%
0$
#668
13
16
1@
1D
0-
b1 8
1%
1$
#670
0%
0$
#672
0@
0D
03
06
0J
b1010101 H
b111 E
b10 8
0>
b1101000 <
1%
1$
#674
0%
0$
#676
b11 8
1%
1$
#678
0%
0$
#680
b100 8
1%
1$
#682
0%
0$
#684
b101 8
1%
1$
#686
0%
0$
#688
1A
1C
14
15
b110 8
1-
1%
1$
#690
0%
0$
#692
b11 =
0A
0C
04
05
0.
1J
1>
b0 :
b1000 9
b111 8
1%
1$
#694
0%
0$
#696
b0 =
b11 7
b1101000 #
b1101000 1
b1101000 ;
1,
1!
b0 8
b0 9
1%
1$
#698
0%
0$
#700
13
16
1@
1D
1K
0-
0!
b0 7
1%
1$
#702
0%
0$
#704
0@
0D
03
06
0J
b10101010 H
b1000 E
0>
b11010000 <
1%
1$
#706
0%
0$
#708
1I
b10101010 "
b10101010 0
b10101010 G
1%
1$
