tb/wave_spi_crc.vcd
$date
	Mon Mar  6 21:58:13 2023
$end
$version
	Icarus Verilog
$end
$timescale
	1ps
$end
$scope module test_spi_crc $end
$var wire 1 ! finish $end
$var wire 8 " data_out_slave [7:0] $end
$var wire 8 # data_out_master [7:0] $end
$var reg 1 $ clk_m $end
$var reg 1 % clk_s $end
$var reg 8 & data_in_master [7:0] $end
$var reg 8 ' data_in_slave [7:0] $end
$var reg 1 ( rst_n $end
$var reg 1 ) start $end
$scope module l0 $end
$var wire 1 $ clk_m $end
$var wire 1 % clk_s $end
$var wire 8 * data_in_master [7:0] $end
$var wire 8 + data_in_slave [7:0] $end
$var wire 1 ( rst_n $end
$var wire 1 ) start $end
$var wire 1 , ss $end
$var wire 1 - sclk $end
$var wire 1 . mosi $end
$var wire 1 / miso $end
$var wire 1 ! finish $end
$var wire 8 0 data_out_slave [7:0] $end
$var wire 8 1 data_out_master [7:0] $end
$scope module m0 $end
$var wire 1 $ clk_m $end
$var wire 8 2 data_in_master [7:0] $end
$var wire 1 ( rst_n $end
$var wire 1 ) start $end
$var wire 1 3 shift_en $end
$var wire 1 4 sclk_m_pos $end
$var wire 1 5 sclk_m_neg $end
$var wire 1 6 sampl_en $end
$var wire 1 . mosi $end
$var wire 1 / miso $end
$var reg 5 7 LFSR [4:0] $end
$var reg 2 8 c_state [1:0] $end
$var reg 4 9 cnt_clock [3:0] $end
$var reg 4 : cnt_crc [3:0] $end
$var reg 4 ; cnt_data_width [3:0] $end
$var reg 4 < crc_code [3:0] $end
$var reg 4 = crc_code_r [3:0] $end
$var reg 12 > data_crc [11:0] $end
$var reg 8 ? data_in_master_r [7:0] $end
$var reg 8 @ data_out_master [7:0] $end
$var reg 8 A data_out_master_r [7:0] $end
$var reg 1 ! finish $end
$var reg 2 B n_state [1:0] $end
$var reg 1 - sclk_m $end
$var reg 1 C sclk_m_r0 $end
$var reg 1 , ss $end
$var reg 1 D start_r0 $end
$var reg 1 E start_r1 $end
$upscope $end
$scope module s0 $end
$var wire 1 % clk_s $end
$var wire 8 F data_in_slave [7:0] $end
$var wire 1 . mosi $end
$var wire 1 ( rst_n $end
$var wire 1 - sclk_s $end
$var wire 1 , ss $end
$var wire 1 G ss_neg $end
$var wire 1 H shift_en $end
$var wire 1 I sclk_s_pos $end
$var wire 1 J sclk_s_neg $end
$var wire 1 K sampl_en $end
$var wire 1 / miso $end
$var reg 5 L LFSR [4:0] $end
$var reg 4 M cnt [3:0] $end
$var reg 5 N cnt_crc [4:0] $end
$var reg 4 O crc_code [3:0] $end
$var reg 8 P data_in_slave_r [7:0] $end
$var reg 8 Q data_out_slave [7:0] $end
$var reg 1 R data_valid $end
$var reg 12 S mosi_data [11:0] $end
$var reg 1 T sclk_s_r0 $end
$var reg 1 U ss_r0 $end
$upscope $end
$upscope $end
$upscope $end
$enddefinitions $end
#0
$dumpvars
0U
0T
b0 S
0R
b0 Q
b0 P
b1111 O
b0 N
b0 M
b0 L
0K
0J
0I
0H
0G
b0 F
0E
0D
0C
b0 B
b0 A
b0 @
b0 ?
b0 >
bx =
b0 <
bx ;
bx :
b0 9
b0 8
bx 7
06
05
04
03
b0 2
b0 1
b0 0
0/
x.
0-
1,
b0 +
b0 *
0)
0(
b0 '
b0 &
1%
1$
b0 #
b0 "
0!
$end
#2
0%
0$
#4
1%
1$
#6
0%
0$
#8
1%
1$
#10
0%
0$
1(
#12
0.
1U
b0 ;
b0 :
1%
1$
#14
0%
0$
#15
b1 B
1)
b11010111 &
b11010111 *
b11010111 2
#16
b10 B
1G
1.
b1 8
b101 :
b1001 7
b110101110000 >
b1 ;
b11010111 ?
0,
1D
1%
1$
#17
b11110101 '
b11110101 +
b11110101 F
#18
0%
0$
#19
b0 &
b0 *
b0 2
0)
#20
0G
1/
b1 M
b1 S
b11110101 P
0U
1E
0D
b10011 7
b110 :
b1 9
b10 8
1%
1$
#21
b0 '
b0 +
b0 F
#22
0%
0$
#24
b1 7
b111 :
b1 A
b10 9
0E
1%
1$
#26
0%
0$
#28
b11 7
b1000 :
b11 9
1%
1$
#30
0%
0$
#32
b110 7
b1001 :
b100 9
1%
1$
#34
0%
0$
#36
b1100 7
b1010 :
b101 9
1%
1$
#38
0%
0$
#40
1H
13
1I
14
b11000 7
b1011 :
b110 9
1-
1%
1$
#42
0%
0$
#44
0H
03
0I
04
b11101010 P
1T
1C
b10110 7
b1100 :
b10101110 ?
b111 9
1%
1$
#46
0%
0$
#48
b0 =
b101 <
b1000 9
1%
1$
#50
0%
0$
#52
b101 =
b1001 9
1%
1$
#54
0%
0$
#56
b1010 9
1%
1$
#58
0%
0$
#60
16
1K
15
1J
0-
b1 9
1%
1$
#62
0%
0$
#64
0K
06
0J
05
0T
b11 S
b10 M
b11 A
b10 ;
b10 9
0C
1%
1$
#66
0%
0$
#68
b11 9
1%
1$
#70
0%
0$
#72
b100 9
1%
1$
#74
0%
0$
#76
b101 9
1%
1$
#78
0%
0$
#80
1H
13
1I
14
b110 9
1-
1%
1$
#82
0%
0$
#84
0H
03
0I
04
0.
b11010100 P
1T
1C
b1011100 ?
b111 9
1%
1$
#86
0%
0$
#88
b1000 9
1%
1$
#90
0%
0$
#92
b1001 9
1%
1$
#94
0%
0$
#96
b1010 9
1%
1$
#98
0%
0$
#100
16
1K
15
1J
0-
b1 9
1%
1$
#102
0%
0$
#104
0K
06
0J
05
0T
b110 S
b11 M
b111 A
b11 ;
b10 9
0C
1%
1$
#106
0%
0$
#108
b11 9
1%
1$
#110
0%
0$
#112
b100 9
1%
1$
#114
0%
0$
#116
b101 9
1%
1$
#118
0%
0$
#120
1H
13
1I
14
b110 9
1-
1%
1$
#122
0%
0$
#124
0H
03
0I
04
1.
b10101000 P
1T
1C
b10111000 ?
b111 9
1%
1$
#126
0%
0$
#128
b1000 9
1%
1$
#130
0%
0$
#132
b1001 9
1%
1$
#134
0%
0$
#136
b1010 9
1%
1$
#138
0%
0$
#140
16
1K
15
1J
0-
b1 9
1%
1$
#142
0%
0$
#144
0K
06
0J
05
0T
b1101 S
b100 M
b1111 A
b100 ;
b10 9
0C
1%
1$
#146
0%
0$
#148
b11 9
1%
1$
#150
0%
0$
#152
b100 9
1%
1$
#154
0%
0$
#156
b101 9
1%
1$
#158
0%
0$
#160
1H
13
1I
14
b110 9
1-
1%
1$
#162
0%
0$
#164
0H
03
0I
04
0.
0/
b1010000 P
1T
1C
b1110000 ?
b111 9
1%
1$
#166
0%
0$
#168
b1000 9
1%
1$
#170
0%
0$
#172
b1001 9
1%
1$
#174
0%
0$
#176
b1010 9
1%
1$
#178
0%
0$
#180
16
1K
15
1J
0-
b1 9
1%
1$
#182
0%
0$
#184
0K
06
0J
05
0T
b11010 S
b101 M
b11110 A
b101 ;
b10 9
0C
1%
1$
#186
0%
0$
#188
b11 9
1%
1$
#190
0%
0$
#192
b100 9
1%
1$
#194
0%
0$
#196
b101 9
1%
1$
#198
0%
0$
#200
1H
13
1I
14
b110 9
1-
1%
1$
#202
0%
0$
#204
0H
03
0I
04
1.
1/
b10100000 P
1T
1C
b11100000 ?
b111 9
1%
1$
#206
0%
0$
#208
b1000 9
1%
1$
#210
0%
0$
#212
b1001 9
1%
1$
#214
0%
0$
#216
b1010 9
1%
1$
#218
0%
0$
#220
16
1K
15
1J
0-
b1 9
1%
1$
#222
0%
0$
#224
0K
06
0J
05
0T
b110101 S
b110 M
b111101 A
b110 ;
b10 9
0C
1%
1$
#226
0%
0$
#228
b11 9
1%
1$
#230
0%
0$
#232
b100 9
1%
1$
#234
0%
0$
#236
b101 9
1%
1$
#238
0%
0$
#240
1H
13
1I
14
b110 9
1-
1%
1$
#242
0%
0$
#244
0H
03
0I
04
0/
b1000000 P
1T
1C
b11000000 ?
b111 9
1%
1$
#246
0%
0$
#248
b1000 9
1%
1$
#250
0%
0$
#252
b1001 9
1%
1$
#254
0%
0$
#256
b1010 9
1%
1$
#258
0%
0$
#260
16
1K
15
1J
0-
b1 9
1%
1$
#262
0%
0$
#264
0K
06
0J
05
0T
b1101011 S
b111 M
b1111010 A
b111 ;
b10 9
0C
1%
1$
#266
0%
0$
#268
b11010111 "
b11010111 0
b11010111 Q
b11 9
1%
1$
#270
0%
0$
#272
b100 9
1%
1$
#274
0%
0$
#276
b101 9
1%
1$
#278
0%
0$
#280
1H
13
1I
14
b110 9
1-
1%
1$
#282
0%
0$
#284
0H
03
0I
04
1/
b10000000 P
1T
1C
b10000000 ?
b111 9
1%
1$
#286
0%
0$
#288
b1000 9
1%
1$
#290
0%
0$
#292
b1001 9
1%
1$
#294
0%
0$
#296
b1010 9
1%
1$
#298
0%
0$
#300
16
1K
15
1J
0-
b1 9
1%
1$
#302
0%
0$
#304
0K
06
0J
05
0.
0T
b11010111 S
b1000 M
b11110101 A
b1000 ;
b10 9
0C
1%
1$
#306
0%
0$
#308
b11110101 #
b11110101 1
b11110101 @
b11 9
1%
1$
#310
0%
0$
#312
b100 9
1%
1$
#314
0%
0$
#316
b101 9
1%
1$
#318
0%
0$
#320
1H
13
1I
14
b110 9
1-
1%
1$
#322
0%
0$
#324
0H
03
0I
04
0/
b0 P
1T
1C
b0 ?
b111 9
1%
1$
#326
0%
0$
#328
b1000 9
1%
1$
#330
0%
0$
#332
b1001 9
1%
1$
#334
0%
0$
#336
b1010 9
1%
1$
#338
0%
0$
#340
16
1K
15
1J
0-
b1 9
1%
1$
#342
0%
0$
#344
0K
06
0J
05
0T
b110101110 S
b1001 M
b1001 ;
b10 9
0C
1%
1$
#346
0%
0$
#348
b11 9
1%
1$
#350
0%
0$
#352
b100 9
1%
1$
#354
0%
0$
#356
b101 9
1%
1$
#358
0%
0$
#360
1H
13
1I
14
b110 9
1-
1%
1$
#362
0%
0$
#364
0H
03
0I
04
1.
1T
1C
b1010 =
b111 9
1%
1$
#366
0%
0$
#368
b1000 9
1%
1$
#370
0%
0$
#372
b1001 9
1%
1$
#374
0%
0$
#376
b1010 9
1%
1$
#378
0%
0$
#380
16
1K
15
1J
0-
b1 9
1%
1$
#382
0%
0$
#384
0K
06
0J
05
0T
b1101011101 S
b1010 M
b1010 ;
b10 9
0C
1%
1$
#386
0%
0$
#388
b11 9
1%
1$
#390
0%
0$
#392
b100 9
1%
1$
#394
0%
0$
#396
b101 9
1%
1$
#398
0%
0$
#400
1H
13
1I
14
b110 9
1-
1%
1$
#402
0%
0$
#404
0H
03
0I
04
0.
1T
1C
b100 =
b111 9
1%
1$
#406
0%
0$
#408
b1000 9
1%
1$
#410
0%
0$
#412
b1001 9
1%
1$
#414
0%
0$
#416
b1010 9
1%
1$
#418
0%
0$
#420
16
1K
15
1J
0-
b1 9
1%
1$
#422
0%
0$
#424
0K
06
0J
05
0T
b11010111010 S
b1011 M
b1011 ;
b10 9
0C
1%
1$
#426
0%
0$
#428
b101 N
b11010 L
b11 9
1%
1$
#430
0%
0$
#432
b100 9
1%
1$
#434
0%
0$
#436
b101 9
1%
1$
#438
0%
0$
#440
1H
13
1I
14
b110 9
1-
1%
1$
#442
0%
0$
#444
0H
03
0I
04
1.
1T
1C
b1000 =
b111 9
1%
1$
#446
0%
0$
#448
b1000 9
1%
1$
#450
0%
0$
#452
b1001 9
1%
1$
#454
0%
0$
#456
b1010 9
1%
1$
#458
0%
0$
#460
16
1K
15
1J
0-
b1 9
1%
1$
#462
0%
0$
#464
b11 B
0K
06
0J
05
0T
b110101110101 S
b1100 M
b1100 ;
b10 9
0C
1%
1$
#466
0%
0$
#468
b0 B
0.
b110 N
b10011 L
b0 7
b0 >
b0 :
1,
1!
b0 9
b0 ;
b11 8
1%
1$
#470
0%
0$
#472
1U
b1 L
b111 N
b0 8
b0 <
0!
1%
1$
#474
0%
0$
#476
b1000 N
b11 L
1%
1$
#478
0%
0$
#480
b110 L
b1001 N
1%
1$
#482
0%
0$
#484
b1010 N
b1101 L
1%
1$
#486
0%
0$
#488
b11010 L
b1011 N
1%
1$
#490
0%
0$
#492
b1100 N
b10011 L
1%
1$
#494
0%
0$
#496
b1101 N
b0 O
1%
1$
#498
0%
0$
#500
1R
b1110 N
1%
1$
#502
0%
0$
#504
b1111 N
1%
1$
#506
0%
0$
#508
b10000 N
1%
1$
#510
0%
0$
#512
b10001 N
1%
1$
#514
0%
0$
#516
b10010 N
1%
1$
#518
0%
0$
#520
b10011 N
1%
1$
#522
0%
0$
#524
b10100 N
1%
1$
#526
0%
0$
#528
b10101 N
1%
1$
#530
0%
0$
#532
b10110 N
1%
1$
#534
0%
0$
#536
b10111 N
1%
1$
#538
0%
0$
#540
b11000 N
1%
1$
#541
b1 B
b11010111 '
b11010111 +
b11010111 F
b11110101 &
b11110101 *
b11110101 2
1)
#542
0%
0$
#544
b10 B
1G
1.
b11001 N
b1 8
b101 :
b1101 7
b111101010000 >
b1 ;
b0 A
b0 #
b0 1
b0 @
b11110101 ?
0,
1D
1%
1$
#546
0%
0$
#548
0G
1/
b1111 O
b0 N
b0 "
b0 0
b0 Q
b1 M
b1 S
b11010111 P
0U
1E
b11011 7
b110 :
b1 9
b10 8
1%
1$
#550
0%
0$
#551
b0 '
b0 +
b0 F
b0 &
b0 *
b0 2
0)
#552
0R
b10000 7
b111 :
b1 A
b10 9
0D
1%
1$
#554
0%
0$
#556
0E
b111 7
b1000 :
b11 A
b11 9
1%
1$
#558
0%
0$
#560
b1110 7
b1001 :
b100 9
1%
1$
#562
0%
0$
#564
b11100 7
b1010 :
b101 9
1%
1$
#566
0%
0$
#568
1H
13
1I
14
b11110 7
b1011 :
b110 9
1-
1%
1$
#570
0%
0$
#572
0H
03
0I
04
b10101110 P
1T
1C
b11010 7
b1100 :
b11101010 ?
b111 9
1%
1$
#574
0%
0$
#576
b0 =
b1001 <
b1000 9
1%
1$
#578
0%
0$
#580
b1001 =
b1001 9
1%
1$
#582
0%
0$
#584
b1010 9
1%
1$
#586
0%
0$
#588
16
1K
15
1J
0-
b1 9
1%
1$
#590
0%
0$
#592
0K
06
0J
05
0T
b11 S
b10 M
b111 A
b10 ;
b10 9
0C
1%
1$
#594
0%
0$
#596
b11 9
1%
1$
#598
0%
0$
#600
b100 9
1%
1$
#602
0%
0$
#604
b101 9
1%
1$
#606
0%
0$
#608
1H
13
1I
14
b110 9
1-
1%
1$
#610
0%
0$
#612
0H
03
0I
04
0/
b1011100 P
1T
1C
b11010100 ?
b111 9
1%
1$
#614
0%
0$
#616
b1000 9
1%
1$
#618
0%
0$
#620
b1001 9
1%
1$
#622
0%
0$
#624
b1010 9
1%
1$
#626
0%
0$
#628
16
1K
15
1J
0-
b1 9
1%
1$
#630
0%
0$
#632
0K
06
0J
05
0T
b111 S
b11 M
b1110 A
b11 ;
b10 9
0C
1%
1$
#634
0%
0$
#636
b11 9
1%
1$
#638
0%
0$
#640
b100 9
1%
1$
#642
0%
0$
#644
b101 9
1%
1$
#646
0%
0$
#648
1H
13
1I
14
b110 9
1-
1%
1$
#650
0%
0$
#652
0H
03
0I
04
1/
b10111000 P
1T
1C
b10101000 ?
b111 9
1%
1$
#654
0%
0$
#656
b1000 9
1%
1$
#658
0%
0$
#660
b1001 9
1%
1$
#662
0%
0$
#664
b1010 9
1%
1$
#666
0%
0$
#668
16
1K
15
1J
0-
b1 9
1%
1$
#670
0%
0$
#672
0K
06
0J
05
0T
b1111 S
b100 M
b11101 A
b100 ;
b10 9
0C
1%
1$
#674
0%
0$
#676
b11 9
1%
1$
#678
0%
0$
#680
b100 9
1%
1$
#682
0%
0$
#684
b101 9
1%
1$
#686
0%
0$
#688
1H
13
1I
14
b110 9
1-
1%
1$
#690
0%
0$
#692
0H
03
0I
04
0.
0/
b1110000 P
1T
1C
b1010000 ?
b111 9
1%
1$
#694
0%
0$
#696
b1000 9
1%
1$
#698
0%
0$
#700
b1001 9
1%
1$
#702
0%
0$
#704
b1010 9
1%
1$
#706
0%
0$
#708
16
1K
15
1J
0-
b1 9
1%
1$
#710
0%
0$
#712
0K
06
0J
05
0T
b11110 S
b101 M
b111010 A
b101 ;
b10 9
0C
1%
1$
#714
0%
0$
#716
b11 9
1%
1$
#718
0%
0$
#720
b100 9
1%
1$
#722
0%
0$
#724
b101 9
1%
1$
#726
0%
0$
#728
1H
13
1I
14
b110 9
1-
1%
1$
#730
0%
0$
#732
0H
03
0I
04
1.
1/
b11100000 P
1T
1C
b10100000 ?
b111 9
1%
1$
#734
0%
0$
#736
b1000 9
1%
1$
#738
0%
0$
#740
b1001 9
1%
1$
#742
0%
0$
#744
b1010 9
1%
1$
#746
0%
0$
#748
16
1K
15
1J
0-
b1 9
1%
1$
#750
0%
0$
#752
0K
06
0J
05
0T
b111101 S
b110 M
b1110101 A
b110 ;
b10 9
0C
1%
1$
#754
0%
0$
#756
b11 9
1%
1$
#758
0%
0$
#760
b100 9
1%
1$
#762
0%
0$
#764
b101 9
1%
1$
#766
0%
0$
#768
1H
13
1I
14
b110 9
1-
1%
1$
#770
0%
0$
#772
0H
03
0I
04
0.
b11000000 P
1T
1C
b1000000 ?
b111 9
1%
1$
#774
0%
0$
#776
b1000 9
1%
1$
#778
0%
0$
#780
b1001 9
1%
1$
#782
0%
0$
#784
b1010 9
1%
1$
#786
0%
0$
#788
16
1K
15
1J
0-
b1 9
1%
1$
#790
0%
0$
#792
0K
06
0J
05
0T
b1111010 S
b111 M
b11101011 A
b111 ;
b10 9
0C
1%
1$
#794
0%
0$
#796
b11110100 "
b11110100 0
b11110100 Q
b11 9
1%
1$
#798
0%
0$
#800
b100 9
1%
1$
#802
0%
0$
#804
b101 9
1%
1$
#806
0%
0$
#808
1H
13
1I
14
b110 9
1-
1%
1$
#810
0%
0$
#812
0H
03
0I
04
1.
b10000000 P
1T
1C
b10000000 ?
b111 9
1%
1$
#814
0%
0$
#816
b11110101 "
b11110101 0
b11110101 Q
b1000 9
1%
1$
#818
0%
0$
#820
b1001 9
1%
1$
#822
0%
0$
#824
b1010 9
1%
1$
#826
0%
0$
#828
16
1K
15
1J
0-
b1 9
1%
1$
#830
0%
0$
#832
0K
06
0J
05
0T
b11110101 S
b1000 M
b11010111 A
b1000 ;
b10 9
0C
1%
1$
#834
0%
0$
#836
b11010111 #
b11010111 1
b11010111 @
b11 9
1%
1$
#838
0%
0$
#840
b100 9
1%
1$
#842
0%
0$
#844
b101 9
1%
1$
#846
0%
0$
#848
1H
13
1I
14
b110 9
1-
1%
1$
#850
0%
0$
#852
0H
03
0I
04
0/
b0 P
1T
1C
b0 ?
b111 9
1%
1$
#854
0%
0$
#856
b1000 9
1%
1$
#858
0%
0$
#860
b1001 9
1%
1$
#862
0%
0$
#864
b1010 9
1%
1$
#866
0%
0$
#868
16
1K
15
1J
0-
b1 9
1%
1$
#870
0%
0$
#872
0K
06
0J
05
0T
b111101011 S
b1001 M
b1001 ;
b10 9
0C
1%
1$
#874
0%
0$
#876
b11 9
1%
1$
#878
0%
0$
#880
b100 9
1%
1$
#882
0%
0$
#884
b101 9
1%
1$
#886
0%
0$
#888
1H
13
1I
14
b110 9
1-
1%
1$
#890
0%
0$
#892
0H
03
0I
04
0.
1T
1C
b10 =
b111 9
1%
1$
#894
0%
0$
#896
b1000 9
1%
1$
#898
0%
0$
#900
b1001 9
1%
1$
#902
0%
0$
#904
b1010 9
1%
1$
#906
0%
0$
#908
16
1K
15
1J
0-
b1 9
1%
1$
#910
0%
0$
#912
0K
06
0J
05
0T
b1111010110 S
b1010 M
b1010 ;
b10 9
0C
1%
1$
#914
0%
0$
#916
b11 9
1%
1$
#918
0%
0$
#920
b100 9
1%
1$
#922
0%
0$
#924
b101 9
1%
1$
#926
0%
0$
#928
1H
13
1I
14
b110 9
1-
1%
1$
#930
0%
0$
#932
0H
03
0I
04
1T
1C
b100 =
b111 9
1%
1$
#934
0%
0$
#936
b1000 9
1%
1$
#938
0%
0$
#940
b1001 9
1%
1$
#942
0%
0$
#944
b1010 9
1%
1$
#946
0%
0$
#948
16
1K
15
1J
0-
b1 9
1%
1$
#950
0%
0$
#952
0K
06
0J
05
0T
b11110101100 S
b1011 M
b1011 ;
b10 9
0C
1%
1$
#954
0%
0$
#956
b101 N
b11110 L
b11 9
1%
1$
#958
0%
0$
#960
b100 9
1%
1$
#962
0%
0$
#964
b101 9
1%
1$
#966
0%
0$
#968
1H
13
1I
14
b110 9
1-
1%
1$
#970
0%
0$
#972
0H
03
0I
04
1.
1T
1C
b1000 =
b111 9
1%
1$
#974
0%
0$
#976
b1000 9
1%
1$
#978
0%
0$
#980
b1001 9
1%
1$
#982
0%
0$
#984
b1010 9
1%
1$
#986
0%
0$
#988
16
1K
15
1J
0-
b1 9
1%
1$
#990
0%
0$
#992
b11 B
0K
06
0J
05
0T
b111101011001 S
b1100 M
b1100 ;
b10 9
0C
1%
1$
#994
0%
0$
#996
b0 B
0.
b110 N
b11011 L
b0 7
b0 >
b0 :
1,
1!
b0 9
b0 ;
b11 8
1%
1$
#998
0%
0$
#1000
1U
b10000 L
b111 N
b0 8
b0 <
0!
1%
1$
#1002
0%
0$
#1004
b1000 N
b111 L
1%
1$
#1006
0%
0$
#1008
b1111 L
b1001 N
1%
1$
#1010
0%
0$
#1012
b1010 N
b11110 L
1%
1$
#1014
0%
0$
#1016
b11010 L
b1011 N
1%
1$
#1018
0%
0$
#1020
b1100 N
b10011 L
1%
1$
#1022
0%
0$
#1024
b1101 N
b0 O
1%
1$
#1026
0%
0$
#1028
1R
b1110 N
1%
1$
#1030
0%
0$
#1032
b1111 N
1%
1$
#1034
0%
0$
#1036
b10000 N
1%
1$
#1038
0%
0$
#1040
b10001 N
1%
1$
#1042
0%
0$
#1044
b10010 N
1%
1$
#1046
0%
0$
#1048
b10011 N
1%
1$
#1050
0%
0$
#1052
b10100 N
1%
1$
#1054
0%
0$
#1056
b10101 N
1%
1$
#1058
0%
0$
#1060
b10110 N
1%
1$
#1062
0%
0$
#1064
b10111 N
1%
1$
#1066
0%
0$
#1068
b11000 N
1%
1$
#1070
0%
0$
#1072
b11001 N
1%
1$
#1074
0%
0$
#1076
b11010 N
1%
1$
#1078
0%
0$
#1080
b11011 N
1%
1$
#1082
0%
0$
#1084
b11100 N
1%
1$
#1086
0%
0$
#1088
b11101 N
1%
1$
#1090
0%
0$
#1092
b11110 N
1%
1$
#1094
0%
0$
#1096
b11111 N
1%
1$
#1098
0%
0$
#1100
b0 N
1%
1$
